email,date,price,currency,status
test0@test.com,20.01.2019 23:11:12,57.50,USD,approved
test2@test.com,23.02.2019 03:06:00,11.22,USD,pending
test0@test.com,02.01.2019 11:02:43,31.34,USD,approved
test3@test.com,11.02.2019 22:02:45,560.00,USD,rejected
test1@test.com,20.01.2019 23:11:12,77.50,USD,approved
test4@test.com,23.02.2019 04:06:00,19.22,USD,pending
test5@test.com,02.02.2019 10:02:43,38.34,USD,approved
test3@test.com,11.03.2019 22:02:45,860.00,USD,rejected
test4@test.com,20.01.2019 23:11:12,21.50,USD,approved
test5@test.com,23.02.2019 05:06:00,97.22,USD,pending
test6@test.com,02.04.2019 09:02:43,39.34,USD,approved
test3@test.com,11.05.2019 20:02:45,470.00,USD,rejected
test6@test.com,20.08.2019 23:11:12,47.50,USD,approved
test1@test.com,23.07.2019 03:06:00,61.22,USD,pending
test2@test.com,02.06.2019 20:02:43,21.34,USD,approved
test3@test.com,11.02.2019 22:02:45,350.00,USD,rejected
test2@test.com,20.01.2019 23:11:12,71.50,USD,approved
test3@test.com,23.02.2019 03:06:00,65.22,USD,pending
test6@test.com,02.08.2019 07:02:43,27.34,USD,approved
test5@test.com,11.07.2019 09:02:45,150.00,USD,rejected
test0@test.com,20.07.2019 11:11:12,124.50,USD,approved
test2@test.com,23.06.2019 12:06:00,88.22,USD,pending
test5@test.com,02.05.2019 14:02:43,21.34,USD,approved
test3@test.com,11.10.2019 18:02:45,320.00,USD,rejected
test5@test.com,20.10.2019 17:11:12,155.50,USD,approved
test2@test.com,23.12.2019 16:06:00,101.22,USD,pending
test6@test.com,02.12.2019 19:02:43,99.34,USD,approved
test3@test.com,11.10.2019 20:02:45,220.00,USD,rejected
test6@test.com,20.10.2019 17:11:12,155.50,USD,approved
test1@test.com,23.12.2019 16:06:00,101.22,USD,approved
test4@test.com,02.12.2019 19:02:43,99.34,USD,approved
test5@test.com,11.10.2019 20:02:45,220.00,USD,approved
test3@test.com,11.10.2019 20:02:45,220.00,USD,rejected
test8@test.com,20.10.2019 17:11:12,155.50,USD,approved
test9@test.com,23.12.2019 16:06:00,101.22,USD,approved
test10@test.com,02.12.2019 19:02:43,99.34,USD,approved
test11@test.com,11.10.2019 20:02:45,220.00,USD,approved
test12@test.com,23.12.2019 16:06:00,101.22,USD,approved
test43@test.com,02.12.2019 19:02:43,99.34,USD,approved
test54@test.com,11.10.2019 20:02:45,220.00,USD,approved